%YAML 1.1
%TAG !u! tag:unity3d.com,2011:
--- !u!1 &1562403358544476
GameObject:
  m_ObjectHideFlags: 0
  m_CorrespondingSourceObject: {fileID: 0}
  m_PrefabInstance: {fileID: 0}
  m_PrefabAsset: {fileID: 0}
  serializedVersion: 6
  m_Component:
  - component: {fileID: 4624131076994244}
  - component: {fileID: 33723778696078152}
  - component: {fileID: 23779647809084610}
  - component: {fileID: 64630222037952654}
  - component: {fileID: 114691959475804044}
  - component: {fileID: 114815450179735624}
  - component: {fileID: 114178065149942820}
  - component: {fileID: 114435900412117684}
  m_Layer: 8
  m_Name: IronOreB
  m_TagString: clickable
  m_Icon: {fileID: 0}
  m_NavMeshLayer: 0
  m_StaticEditorFlags: 123
  m_IsActive: 1
--- !u!4 &4624131076994244
Transform:
  m_ObjectHideFlags: 0
  m_CorrespondingSourceObject: {fileID: 0}
  m_PrefabInstance: {fileID: 0}
  m_PrefabAsset: {fileID: 0}
  m_GameObject: {fileID: 1562403358544476}
  m_LocalRotation: {x: -0.000000021855696, y: 2.220446e-16, z: 4.8529394e-24, w: 1}
  m_LocalPosition: {x: -34.29, y: 7.26, z: 136.63}
  m_LocalScale: {x: 1.4955797, y: 1.4955795, z: 1.4955795}
  m_Children: []
  m_Father: {fileID: 0}
  m_RootOrder: 0
  m_LocalEulerAnglesHint: {x: 0, y: 0, z: 0}
--- !u!33 &33723778696078152
MeshFilter:
  m_ObjectHideFlags: 0
  m_CorrespondingSourceObject: {fileID: 0}
  m_PrefabInstance: {fileID: 0}
  m_PrefabAsset: {fileID: 0}
  m_GameObject: {fileID: 1562403358544476}
  m_Mesh: {fileID: 4300000, guid: a3e2467a9c4bac94fb5a7082c74152cf, type: 3}
--- !u!23 &23779647809084610
MeshRenderer:
  m_ObjectHideFlags: 0
  m_CorrespondingSourceObject: {fileID: 0}
  m_PrefabInstance: {fileID: 0}
  m_PrefabAsset: {fileID: 0}
  m_GameObject: {fileID: 1562403358544476}
  m_Enabled: 1
  m_CastShadows: 1
  m_ReceiveShadows: 1
  m_DynamicOccludee: 1
  m_MotionVectors: 1
  m_LightProbeUsage: 1
  m_ReflectionProbeUsage: 1
  m_RayTracingMode: 2
  m_RenderingLayerMask: 4294967295
  m_RendererPriority: 0
  m_Materials:
  - {fileID: 2100000, guid: fb4bd4d8b76d22e41adad3ad06ca35d8, type: 2}
  - {fileID: 2100000, guid: 51c53b82e5fb75645861385eb990b4f6, type: 2}
  m_StaticBatchInfo:
    firstSubMesh: 0
    subMeshCount: 0
  m_StaticBatchRoot: {fileID: 0}
  m_ProbeAnchor: {fileID: 0}
  m_LightProbeVolumeOverride: {fileID: 0}
  m_ScaleInLightmap: 1
  m_ReceiveGI: 1
  m_PreserveUVs: 0
  m_IgnoreNormalsForChartDetection: 0
  m_ImportantGI: 0
  m_StitchLightmapSeams: 0
  m_SelectedEditorRenderState: 3
  m_MinimumChartSize: 4
  m_AutoUVMaxDistance: 0.5
  m_AutoUVMaxAngle: 89
  m_LightmapParameters: {fileID: 0}
  m_SortingLayerID: 0
  m_SortingLayer: 0
  m_SortingOrder: 0
--- !u!64 &64630222037952654
MeshCollider:
  m_ObjectHideFlags: 0
  m_CorrespondingSourceObject: {fileID: 0}
  m_PrefabInstance: {fileID: 0}
  m_PrefabAsset: {fileID: 0}
  m_GameObject: {fileID: 1562403358544476}
  m_Material: {fileID: 0}
  m_IsTrigger: 0
  m_Enabled: 1
  serializedVersion: 4
  m_Convex: 1
  m_CookingOptions: -1
  m_Mesh: {fileID: 4300000, guid: a3e2467a9c4bac94fb5a7082c74152cf, type: 3}
--- !u!114 &114691959475804044
MonoBehaviour:
  m_ObjectHideFlags: 0
  m_CorrespondingSourceObject: {fileID: 0}
  m_PrefabInstance: {fileID: 0}
  m_PrefabAsset: {fileID: 0}
  m_GameObject: {fileID: 1562403358544476}
  m_Enabled: 1
  m_EditorHideFlags: 0
  m_Script: {fileID: 11500000, guid: 0ab76021f9c1dfc44b51866a9c2ad0bc, type: 3}
  m_Name: 
  m_EditorClassIdentifier: 
  HP: 750
  type: 5
  faction: 3
  unregistered: 0
  foundFlags: 0
--- !u!114 &114815450179735624
MonoBehaviour:
  m_ObjectHideFlags: 0
  m_CorrespondingSourceObject: {fileID: 0}
  m_PrefabInstance: {fileID: 0}
  m_PrefabAsset: {fileID: 0}
  m_GameObject: {fileID: 1562403358544476}
  m_Enabled: 1
  m_EditorHideFlags: 0
  m_Script: {fileID: 11500000, guid: 86e096658f30f4940aacc6687863d691, type: 3}
  m_Name: 
  m_EditorClassIdentifier: 
  infoBut: {fileID: 21300000, guid: 0c5bb980a75e4e24db86dddc4d4de97c, type: 3}
  moveToBut: {fileID: 21300000, guid: 0036304ca6d68334ba79fe76f6088696, type: 3}
  harvestMultiplier: 1
--- !u!114 &114178065149942820
MonoBehaviour:
  m_ObjectHideFlags: 0
  m_CorrespondingSourceObject: {fileID: 0}
  m_PrefabInstance: {fileID: 0}
  m_PrefabAsset: {fileID: 0}
  m_GameObject: {fileID: 1562403358544476}
  m_Enabled: 1
  m_EditorHideFlags: 0
  m_Script: {fileID: 11500000, guid: eb13f90576ba4df4395f165b942f666f, type: 3}
  m_Name: 
  m_EditorClassIdentifier: 
  Canvas: {fileID: 1329715827467212, guid: 5edfe0dda39722643be2382fba9cc055, type: 3}
  template: {fileID: 1373858447954990, guid: f799a92362ed3c2429826592ea670fdc, type: 3}
  assignEnergyBar: {fileID: 0}
  assignInventoryBar: {fileID: 0}
  assignHPBar: {fileID: 0}
  tempDisplay: {fileID: 0}
--- !u!114 &114435900412117684
MonoBehaviour:
  m_ObjectHideFlags: 0
  m_CorrespondingSourceObject: {fileID: 0}
  m_PrefabInstance: {fileID: 0}
  m_PrefabAsset: {fileID: 0}
  m_GameObject: {fileID: 1562403358544476}
  m_Enabled: 1
  m_EditorHideFlags: 0
  m_Script: {fileID: 11500000, guid: 28a1e9e443b0e4240abc20806523ca81, type: 3}
  m_Name: 
  m_EditorClassIdentifier: 
  area: 1
