%YAML 1.1
%TAG !u! tag:unity3d.com,2011:
--- !u!1 &1197990819844626
GameObject:
  m_ObjectHideFlags: 0
  m_CorrespondingSourceObject: {fileID: 0}
  m_PrefabInstance: {fileID: 0}
  m_PrefabAsset: {fileID: 0}
  serializedVersion: 6
  m_Component:
  - component: {fileID: 4705675611901928}
  - component: {fileID: 33782183528862290}
  - component: {fileID: 23945968651312378}
  - component: {fileID: 65298661047854604}
  - component: {fileID: 114143183652052328}
  - component: {fileID: 114255311569941596}
  - component: {fileID: 114866444548532156}
  - component: {fileID: 114502911029020654}
  - component: {fileID: 114070383604624436}
  - component: {fileID: 114881756715424892}
  - component: {fileID: 114598620206638866}
  m_Layer: 8
  m_Name: Rock_small
  m_TagString: clickable
  m_Icon: {fileID: 0}
  m_NavMeshLayer: 0
  m_StaticEditorFlags: 123
  m_IsActive: 1
--- !u!4 &4705675611901928
Transform:
  m_ObjectHideFlags: 0
  m_CorrespondingSourceObject: {fileID: 0}
  m_PrefabInstance: {fileID: 0}
  m_PrefabAsset: {fileID: 0}
  m_GameObject: {fileID: 1197990819844626}
  m_LocalRotation: {x: 0.000000021855694, y: -0, z: -0, w: 1}
  m_LocalPosition: {x: 9.35, y: 5.74, z: 2.43}
  m_LocalScale: {x: 1, y: 1, z: 1}
  m_Children: []
  m_Father: {fileID: 0}
  m_RootOrder: 0
  m_LocalEulerAnglesHint: {x: 0, y: 0, z: 0}
--- !u!33 &33782183528862290
MeshFilter:
  m_ObjectHideFlags: 0
  m_CorrespondingSourceObject: {fileID: 0}
  m_PrefabInstance: {fileID: 0}
  m_PrefabAsset: {fileID: 0}
  m_GameObject: {fileID: 1197990819844626}
  m_Mesh: {fileID: 4300000, guid: 308d0e2fba217f1449cf6432d89e4a7c, type: 3}
--- !u!23 &23945968651312378
MeshRenderer:
  m_ObjectHideFlags: 0
  m_CorrespondingSourceObject: {fileID: 0}
  m_PrefabInstance: {fileID: 0}
  m_PrefabAsset: {fileID: 0}
  m_GameObject: {fileID: 1197990819844626}
  m_Enabled: 1
  m_CastShadows: 1
  m_ReceiveShadows: 1
  m_DynamicOccludee: 1
  m_MotionVectors: 1
  m_LightProbeUsage: 1
  m_ReflectionProbeUsage: 1
  m_RayTracingMode: 2
  m_RenderingLayerMask: 4294967295
  m_RendererPriority: 0
  m_Materials:
  - {fileID: 2100000, guid: fb4bd4d8b76d22e41adad3ad06ca35d8, type: 2}
  m_StaticBatchInfo:
    firstSubMesh: 0
    subMeshCount: 0
  m_StaticBatchRoot: {fileID: 0}
  m_ProbeAnchor: {fileID: 0}
  m_LightProbeVolumeOverride: {fileID: 0}
  m_ScaleInLightmap: 1
  m_ReceiveGI: 1
  m_PreserveUVs: 0
  m_IgnoreNormalsForChartDetection: 0
  m_ImportantGI: 0
  m_StitchLightmapSeams: 0
  m_SelectedEditorRenderState: 3
  m_MinimumChartSize: 4
  m_AutoUVMaxDistance: 0.5
  m_AutoUVMaxAngle: 89
  m_LightmapParameters: {fileID: 0}
  m_SortingLayerID: 0
  m_SortingLayer: 0
  m_SortingOrder: 0
--- !u!65 &65298661047854604
BoxCollider:
  m_ObjectHideFlags: 0
  m_CorrespondingSourceObject: {fileID: 0}
  m_PrefabInstance: {fileID: 0}
  m_PrefabAsset: {fileID: 0}
  m_GameObject: {fileID: 1197990819844626}
  m_Material: {fileID: 0}
  m_IsTrigger: 0
  m_Enabled: 1
  serializedVersion: 2
  m_Size: {x: 1.5388914, y: 1.268591, z: 1.125972}
  m_Center: {x: 0, y: 0, z: 0}
--- !u!114 &114143183652052328
MonoBehaviour:
  m_ObjectHideFlags: 0
  m_CorrespondingSourceObject: {fileID: 0}
  m_PrefabInstance: {fileID: 0}
  m_PrefabAsset: {fileID: 0}
  m_GameObject: {fileID: 1197990819844626}
  m_Enabled: 1
  m_EditorHideFlags: 0
  m_Script: {fileID: 11500000, guid: a87f52a2cbf043c408ebb6de81b095ee, type: 3}
  m_Name: 
  m_EditorClassIdentifier: 
--- !u!114 &114255311569941596
MonoBehaviour:
  m_ObjectHideFlags: 0
  m_CorrespondingSourceObject: {fileID: 0}
  m_PrefabInstance: {fileID: 0}
  m_PrefabAsset: {fileID: 0}
  m_GameObject: {fileID: 1197990819844626}
  m_Enabled: 1
  m_EditorHideFlags: 0
  m_Script: {fileID: 11500000, guid: 0ab76021f9c1dfc44b51866a9c2ad0bc, type: 3}
  m_Name: 
  m_EditorClassIdentifier: 
  HP: 50
  type: 1
  faction: 3
  unregistered: 0
  foundFlags: 0
--- !u!114 &114866444548532156
MonoBehaviour:
  m_ObjectHideFlags: 0
  m_CorrespondingSourceObject: {fileID: 0}
  m_PrefabInstance: {fileID: 0}
  m_PrefabAsset: {fileID: 0}
  m_GameObject: {fileID: 1197990819844626}
  m_Enabled: 1
  m_EditorHideFlags: 0
  m_Script: {fileID: 11500000, guid: 28a1e9e443b0e4240abc20806523ca81, type: 3}
  m_Name: 
  m_EditorClassIdentifier: 
  area: 0
--- !u!114 &114502911029020654
MonoBehaviour:
  m_ObjectHideFlags: 0
  m_CorrespondingSourceObject: {fileID: 0}
  m_PrefabInstance: {fileID: 0}
  m_PrefabAsset: {fileID: 0}
  m_GameObject: {fileID: 1197990819844626}
  m_Enabled: 1
  m_EditorHideFlags: 0
  m_Script: {fileID: 11500000, guid: eb13f90576ba4df4395f165b942f666f, type: 3}
  m_Name: 
  m_EditorClassIdentifier: 
  Canvas: {fileID: 1329715827467212, guid: 5edfe0dda39722643be2382fba9cc055, type: 3}
  template: {fileID: 1373858447954990, guid: f799a92362ed3c2429826592ea670fdc, type: 3}
  assignEnergyBar: {fileID: 0}
  assignInventoryBar: {fileID: 0}
  assignHPBar: {fileID: 0}
  tempDisplay: {fileID: 0}
--- !u!114 &114070383604624436
MonoBehaviour:
  m_ObjectHideFlags: 0
  m_CorrespondingSourceObject: {fileID: 0}
  m_PrefabInstance: {fileID: 0}
  m_PrefabAsset: {fileID: 0}
  m_GameObject: {fileID: 1197990819844626}
  m_Enabled: 1
  m_EditorHideFlags: 0
  m_Script: {fileID: 11500000, guid: 86e096658f30f4940aacc6687863d691, type: 3}
  m_Name: 
  m_EditorClassIdentifier: 
  infoBut: {fileID: 21300000, guid: 0c5bb980a75e4e24db86dddc4d4de97c, type: 3}
  moveToBut: {fileID: 21300000, guid: 0036304ca6d68334ba79fe76f6088696, type: 3}
  harvestMultiplier: 1
--- !u!114 &114881756715424892
MonoBehaviour:
  m_ObjectHideFlags: 0
  m_CorrespondingSourceObject: {fileID: 0}
  m_PrefabInstance: {fileID: 0}
  m_PrefabAsset: {fileID: 0}
  m_GameObject: {fileID: 1197990819844626}
  m_Enabled: 1
  m_EditorHideFlags: 0
  m_Script: {fileID: 11500000, guid: 2511c5de70233214b91bf8a93925390b, type: 3}
  m_Name: 
  m_EditorClassIdentifier: 
  id: 0
  maxSize: 50
--- !u!114 &114598620206638866
MonoBehaviour:
  m_ObjectHideFlags: 0
  m_CorrespondingSourceObject: {fileID: 0}
  m_PrefabInstance: {fileID: 0}
  m_PrefabAsset: {fileID: 0}
  m_GameObject: {fileID: 1197990819844626}
  m_Enabled: 1
  m_EditorHideFlags: 0
  m_Script: {fileID: 11500000, guid: 0fd292a183e07d74bab757e6fd693984, type: 3}
  m_Name: 
  m_EditorClassIdentifier: 
