%YAML 1.1
%TAG !u! tag:unity3d.com,2011:
--- !u!1 &1060850384446786
GameObject:
  m_ObjectHideFlags: 0
  m_CorrespondingSourceObject: {fileID: 0}
  m_PrefabInstance: {fileID: 0}
  m_PrefabAsset: {fileID: 0}
  serializedVersion: 6
  m_Component:
  - component: {fileID: 4530551117858516}
  m_Layer: 8
  m_Name: ConnectionBegin
  m_TagString: connectionPoint
  m_Icon: {fileID: 0}
  m_NavMeshLayer: 0
  m_StaticEditorFlags: 0
  m_IsActive: 1
--- !u!4 &4530551117858516
Transform:
  m_ObjectHideFlags: 0
  m_CorrespondingSourceObject: {fileID: 0}
  m_PrefabInstance: {fileID: 0}
  m_PrefabAsset: {fileID: 0}
  m_GameObject: {fileID: 1060850384446786}
  m_LocalRotation: {x: 0, y: 0, z: 0, w: 1}
  m_LocalPosition: {x: -15.5, y: -30.6, z: 2.7}
  m_LocalScale: {x: 1, y: 1, z: 1}
  m_Children: []
  m_Father: {fileID: 4052742217897122}
  m_RootOrder: 0
  m_LocalEulerAnglesHint: {x: 0, y: 0, z: 0}
--- !u!1 &1102572931401752
GameObject:
  m_ObjectHideFlags: 0
  m_CorrespondingSourceObject: {fileID: 0}
  m_PrefabInstance: {fileID: 0}
  m_PrefabAsset: {fileID: 0}
  serializedVersion: 6
  m_Component:
  - component: {fileID: 4115134123279212}
  m_Layer: 8
  m_Name: ConnectionBegin (3)
  m_TagString: connectionPoint
  m_Icon: {fileID: 0}
  m_NavMeshLayer: 0
  m_StaticEditorFlags: 0
  m_IsActive: 1
--- !u!4 &4115134123279212
Transform:
  m_ObjectHideFlags: 0
  m_CorrespondingSourceObject: {fileID: 0}
  m_PrefabInstance: {fileID: 0}
  m_PrefabAsset: {fileID: 0}
  m_GameObject: {fileID: 1102572931401752}
  m_LocalRotation: {x: -0, y: -0, z: -0, w: 1}
  m_LocalPosition: {x: 16.6, y: -31.8, z: 3.6}
  m_LocalScale: {x: 0.9999736, y: 0.999973, z: 0.9999725}
  m_Children: []
  m_Father: {fileID: 4052742217897122}
  m_RootOrder: 3
  m_LocalEulerAnglesHint: {x: 0, y: 0, z: 0}
--- !u!1 &1412644149232546
GameObject:
  m_ObjectHideFlags: 0
  m_CorrespondingSourceObject: {fileID: 0}
  m_PrefabInstance: {fileID: 0}
  m_PrefabAsset: {fileID: 0}
  serializedVersion: 6
  m_Component:
  - component: {fileID: 4127053969134510}
  m_Layer: 8
  m_Name: ConnectionBegin (2)
  m_TagString: connectionPoint
  m_Icon: {fileID: 0}
  m_NavMeshLayer: 0
  m_StaticEditorFlags: 0
  m_IsActive: 1
--- !u!4 &4127053969134510
Transform:
  m_ObjectHideFlags: 0
  m_CorrespondingSourceObject: {fileID: 0}
  m_PrefabInstance: {fileID: 0}
  m_PrefabAsset: {fileID: 0}
  m_GameObject: {fileID: 1412644149232546}
  m_LocalRotation: {x: -0, y: -0, z: -0, w: 1}
  m_LocalPosition: {x: 26.1, y: 27.4, z: 0.1}
  m_LocalScale: {x: 0.9999736, y: 0.999973, z: 0.9999725}
  m_Children: []
  m_Father: {fileID: 4052742217897122}
  m_RootOrder: 2
  m_LocalEulerAnglesHint: {x: 0, y: 0, z: 0}
--- !u!1 &1709416218042398
GameObject:
  m_ObjectHideFlags: 0
  m_CorrespondingSourceObject: {fileID: 0}
  m_PrefabInstance: {fileID: 0}
  m_PrefabAsset: {fileID: 0}
  serializedVersion: 6
  m_Component:
  - component: {fileID: 4052742217897122}
  - component: {fileID: 33741287895747884}
  - component: {fileID: 23978417820159916}
  - component: {fileID: 114317771309941662}
  - component: {fileID: 64658773848058738}
  - component: {fileID: 114978382486659284}
  - component: {fileID: 114690782605872610}
  - component: {fileID: 114860334935720096}
  - component: {fileID: 114982585798147584}
  m_Layer: 8
  m_Name: Spaceship
  m_TagString: dropBase
  m_Icon: {fileID: 0}
  m_NavMeshLayer: 1
  m_StaticEditorFlags: 0
  m_IsActive: 1
--- !u!4 &4052742217897122
Transform:
  m_ObjectHideFlags: 0
  m_CorrespondingSourceObject: {fileID: 0}
  m_PrefabInstance: {fileID: 0}
  m_PrefabAsset: {fileID: 0}
  m_GameObject: {fileID: 1709416218042398}
  m_LocalRotation: {x: -0.65372103, y: 0.18455186, z: 0.17555362, w: 0.71258014}
  m_LocalPosition: {x: -755.08026, y: -120.69142, z: 97.93512}
  m_LocalScale: {x: 0.10002266, y: 0.10002273, z: 0.100022785}
  m_Children:
  - {fileID: 4530551117858516}
  - {fileID: 4416876905259516}
  - {fileID: 4127053969134510}
  - {fileID: 4115134123279212}
  m_Father: {fileID: 0}
  m_RootOrder: 0
  m_LocalEulerAnglesHint: {x: 0, y: 0, z: 0}
--- !u!33 &33741287895747884
MeshFilter:
  m_ObjectHideFlags: 0
  m_CorrespondingSourceObject: {fileID: 0}
  m_PrefabInstance: {fileID: 0}
  m_PrefabAsset: {fileID: 0}
  m_GameObject: {fileID: 1709416218042398}
  m_Mesh: {fileID: 4300000, guid: 1742110cdc4617c4c9e5f220fbb26a9f, type: 3}
--- !u!23 &23978417820159916
MeshRenderer:
  m_ObjectHideFlags: 0
  m_CorrespondingSourceObject: {fileID: 0}
  m_PrefabInstance: {fileID: 0}
  m_PrefabAsset: {fileID: 0}
  m_GameObject: {fileID: 1709416218042398}
  m_Enabled: 1
  m_CastShadows: 1
  m_ReceiveShadows: 1
  m_DynamicOccludee: 1
  m_MotionVectors: 1
  m_LightProbeUsage: 0
  m_ReflectionProbeUsage: 1
  m_RayTracingMode: 2
  m_RenderingLayerMask: 4294967295
  m_RendererPriority: 0
  m_Materials:
  - {fileID: 2100000, guid: cd5698e9cbe7b3d43b3419ed61f052aa, type: 2}
  m_StaticBatchInfo:
    firstSubMesh: 0
    subMeshCount: 0
  m_StaticBatchRoot: {fileID: 0}
  m_ProbeAnchor: {fileID: 0}
  m_LightProbeVolumeOverride: {fileID: 0}
  m_ScaleInLightmap: 1
  m_ReceiveGI: 1
  m_PreserveUVs: 0
  m_IgnoreNormalsForChartDetection: 0
  m_ImportantGI: 0
  m_StitchLightmapSeams: 0
  m_SelectedEditorRenderState: 3
  m_MinimumChartSize: 4
  m_AutoUVMaxDistance: 0.5
  m_AutoUVMaxAngle: 89
  m_LightmapParameters: {fileID: 0}
  m_SortingLayerID: 0
  m_SortingLayer: 0
  m_SortingOrder: 0
--- !u!114 &114317771309941662
MonoBehaviour:
  m_ObjectHideFlags: 0
  m_CorrespondingSourceObject: {fileID: 0}
  m_PrefabInstance: {fileID: 0}
  m_PrefabAsset: {fileID: 0}
  m_GameObject: {fileID: 1709416218042398}
  m_Enabled: 1
  m_EditorHideFlags: 0
  m_Script: {fileID: 11500000, guid: 28a1e9e443b0e4240abc20806523ca81, type: 3}
  m_Name: 
  m_EditorClassIdentifier: 
  area: 0
--- !u!64 &64658773848058738
MeshCollider:
  m_ObjectHideFlags: 0
  m_CorrespondingSourceObject: {fileID: 0}
  m_PrefabInstance: {fileID: 0}
  m_PrefabAsset: {fileID: 0}
  m_GameObject: {fileID: 1709416218042398}
  m_Material: {fileID: 0}
  m_IsTrigger: 0
  m_Enabled: 1
  serializedVersion: 4
  m_Convex: 1
  m_CookingOptions: 31
  m_Mesh: {fileID: 4300000, guid: 1742110cdc4617c4c9e5f220fbb26a9f, type: 3}
--- !u!114 &114978382486659284
MonoBehaviour:
  m_ObjectHideFlags: 0
  m_CorrespondingSourceObject: {fileID: 0}
  m_PrefabInstance: {fileID: 0}
  m_PrefabAsset: {fileID: 0}
  m_GameObject: {fileID: 1709416218042398}
  m_Enabled: 1
  m_EditorHideFlags: 0
  m_Script: {fileID: 11500000, guid: 2511c5de70233214b91bf8a93925390b, type: 3}
  m_Name: 
  m_EditorClassIdentifier: 
  id: 0
  maxSize: 9999999
--- !u!114 &114690782605872610
MonoBehaviour:
  m_ObjectHideFlags: 0
  m_CorrespondingSourceObject: {fileID: 0}
  m_PrefabInstance: {fileID: 0}
  m_PrefabAsset: {fileID: 0}
  m_GameObject: {fileID: 1709416218042398}
  m_Enabled: 1
  m_EditorHideFlags: 0
  m_Script: {fileID: 11500000, guid: eb13f90576ba4df4395f165b942f666f, type: 3}
  m_Name: 
  m_EditorClassIdentifier: 
  Canvas: {fileID: 1329715827467212, guid: 5edfe0dda39722643be2382fba9cc055, type: 3}
  template: {fileID: 1373858447954990, guid: f799a92362ed3c2429826592ea670fdc, type: 3}
  assignEnergyBar: {fileID: 1923059133938526, guid: 7fc85b7590a393240b379368e4cfb278,
    type: 3}
  assignInventoryBar: {fileID: 1356850374054606, guid: 6f711be74491f89489289bffc3996f5a,
    type: 3}
  assignHPBar: {fileID: 1923059133938526, guid: c2409a4dfc52b54449f5f78f4dbea0ad,
    type: 3}
  tempDisplay: {fileID: 0}
--- !u!114 &114860334935720096
MonoBehaviour:
  m_ObjectHideFlags: 0
  m_CorrespondingSourceObject: {fileID: 0}
  m_PrefabInstance: {fileID: 0}
  m_PrefabAsset: {fileID: 0}
  m_GameObject: {fileID: 1709416218042398}
  m_Enabled: 1
  m_EditorHideFlags: 0
  m_Script: {fileID: 11500000, guid: 22905a55ea83d6341abedb2e38d6e511, type: 3}
  m_Name: 
  m_EditorClassIdentifier: 
  infoBut: {fileID: 21300000, guid: 0c5bb980a75e4e24db86dddc4d4de97c, type: 3}
  moveToBut: {fileID: 21300000, guid: 8e345bb46f5d8d0428821f4e58e5f068, type: 3}
--- !u!114 &114982585798147584
MonoBehaviour:
  m_ObjectHideFlags: 0
  m_CorrespondingSourceObject: {fileID: 0}
  m_PrefabInstance: {fileID: 0}
  m_PrefabAsset: {fileID: 0}
  m_GameObject: {fileID: 1709416218042398}
  m_Enabled: 1
  m_EditorHideFlags: 0
  m_Script: {fileID: 11500000, guid: 0ab76021f9c1dfc44b51866a9c2ad0bc, type: 3}
  m_Name: 
  m_EditorClassIdentifier: 
  HP: 2000
  type: 2
  faction: 0
  unregistered: 0
  foundFlags: 0
--- !u!1 &1930104451583764
GameObject:
  m_ObjectHideFlags: 0
  m_CorrespondingSourceObject: {fileID: 0}
  m_PrefabInstance: {fileID: 0}
  m_PrefabAsset: {fileID: 0}
  serializedVersion: 6
  m_Component:
  - component: {fileID: 4416876905259516}
  m_Layer: 8
  m_Name: ConnectionBegin (1)
  m_TagString: connectionPoint
  m_Icon: {fileID: 0}
  m_NavMeshLayer: 0
  m_StaticEditorFlags: 0
  m_IsActive: 1
--- !u!4 &4416876905259516
Transform:
  m_ObjectHideFlags: 0
  m_CorrespondingSourceObject: {fileID: 0}
  m_PrefabInstance: {fileID: 0}
  m_PrefabAsset: {fileID: 0}
  m_GameObject: {fileID: 1930104451583764}
  m_LocalRotation: {x: -0, y: -0, z: -0, w: 1}
  m_LocalPosition: {x: -26.1, y: 24.3, z: 0.8}
  m_LocalScale: {x: 0.9999736, y: 0.999973, z: 0.9999725}
  m_Children: []
  m_Father: {fileID: 4052742217897122}
  m_RootOrder: 1
  m_LocalEulerAnglesHint: {x: 0, y: 0, z: 0}
