{
    "MonoBehaviour": {
        "m_Enabled": true,
        "m_EditorHideFlags": 0,
        "m_Name": "FBX Export Settings",
        "m_EditorClassIdentifier": "Unity.Formats.Fbx.Editor:UnityEditor.Formats.Fbx.Exporter:ExportSettings",
        "Verbose": false,
        "launchAfterInstallation": true,
        "HideSendToUnityMenu": true,
        "BakeAnimation": true,
        "showConvertToPrefabDialog": true,
        "integrationSavePath": "E:\\Dokumente\\Workspace\\App\\Unity\\Colony_Game",
        "selectedDCCApp": 0,
        "prefabSavePaths": [
            "."
        ],
        "fbxSavePaths": [
            "Assets/Meshs/Merged/fbx",
            "."
        ],
        "selectedFbxPath": 0,
        "selectedPrefabPath": 0,
        "dccOptionNames": [],
        "dccOptionPaths": [],
        "exportModelSettingsSerialize": {
            "exportFormat": 0,
            "animatedSkinnedMesh": false,
            "mayaCompatibleNaming": true,
            "include": 0,
            "lodLevel": 0,
            "objectPosition": 0,
            "exportUnrendered": true
        },
        "convertToPrefabSettingsSerialize": {
            "exportFormat": 0,
            "animatedSkinnedMesh": false,
            "mayaCompatibleNaming": true
        }
    }
}